
#Sun Cult
order_of_judges_order = {
    icon = GFX_holy_order_judges
    trigger = {
		OR = {
			religion = bulwari_sun_cult
			religion = old_bulwari_sun_cult
		}
	}
    cost = 50
    cost_type = adm_power
    per_province_effect = {
        add_base_tax = 1

        tooltip = {
            custom_tooltip = removes_slaves_tooltip
        }
        hidden_effect = {
            if = {
                limit = {
                    trade_goods = slaves
                }
                change_trade_goods = unknown
            }
        }
    }
    per_province_abandon_effect = {
        add_base_tax = -1
    }
    modifier = {
        local_monthly_devastation = -0.05
		local_unrest = -2
    }
    ai_priority = {
        factor = 2
        modifier = {
            factor = 2.0
            unrest = 5
        }
    }
}

servants_of_surael_order = {
    icon = GFX_holy_order_servants_of_surael
    trigger = {
		OR = {
			religion = bulwari_sun_cult
			religion = old_bulwari_sun_cult
		}
    }
    cost = 50
    cost_type = dip_power
    per_province_effect = {
        add_base_production = 1

        tooltip = {
            custom_tooltip = removes_slaves_tooltip
        }
        hidden_effect = {
            if = {
                limit = {
                    trade_goods = slaves
                }
                change_trade_goods = unknown
            }
        }
    }
    per_province_abandon_effect = {
        add_base_production = -1
    }
    modifier = {
        trade_goods_size_modifier = 0.05
        local_build_cost = -0.1
    }
    ai_priority = {
        factor = 2
        modifier = {
            factor = 2.0
            trade_goods = slaves
        }
        modifier = {
            factor = 2.0
            trade_goods = silk
        }
        modifier = {
            factor = 2.0
            trade_goods = coffee
        }
        modifier = {
            factor = 2.0
            trade_goods = cocoa
        }
        modifier = {
            factor = 2.0
            trade_goods = dyes
        }
        modifier = {
            factor = 2.0
            trade_goods = gems
        }
        modifier = {
            factor = 3.0
            trade_goods = coal
        }
        modifier = {
            factor = 4.0
            trade_goods = damestear
        }
        modifier = {
            factor = 4.0
            trade_goods = precursor_relics
        }
        modifier = {
            factor = 4.0
            trade_goods = mithril
        }
    }
}

order_of_exemplars_order = {
    icon = GFX_holy_order_exemplars
    trigger = {
		OR = {
			religion = bulwari_sun_cult
			religion = old_bulwari_sun_cult
		}
    }
    cost = 50
    cost_type = mil_power
    per_province_effect = {
        add_base_manpower = 1
    }
    per_province_abandon_effect = {
        add_base_manpower = -1
    }
    modifier = {
        local_manpower_modifier = 0.1
		local_defensiveness = 0.15
    }
    ai_priority = {
        factor = 1
        modifier = {
            factor = 1.5
            fort_level = 2
        }
        modifier = {
            factor = 1.5
            base_manpower = 5
        }
        modifier = {
            factor = 2
            base_manpower = 10
        }
    }
}

#Jadd
lightbringers_order = {
    icon = GFX_holy_order_lightbringers
    trigger = {
        religion = the_jadd
    }
    cost = 50
    cost_type = adm_power
    per_province_effect = {
        add_base_tax = 1
    }
    per_province_abandon_effect = {
        add_base_tax = -1
    }
    modifier = {
        local_missionary_strength = 0.03
		local_autonomy = -0.1
        local_unrest = 2
    }
    ai_priority = {
        factor = 10
        modifier = {
            factor = 0
            religion = the_jadd 
        }
    }
}

jasienes_daughters_order = {
    icon = GFX_holy_order_jasienes_daughters
    trigger = {
        religion = the_jadd
    }
    cost = 50
    cost_type = dip_power
    per_province_effect = {
        add_base_production = 1

        tooltip = {
            custom_tooltip = removes_slaves_tooltip
        }
        hidden_effect = {
            if = {
                limit = {
                    trade_goods = slaves
                }
                change_trade_goods = unknown
            }
        }
    }
    per_province_abandon_effect = {
        add_base_production = -1
    }
    modifier = {
        local_unrest = -3
        local_monthly_devastation = -0.2
		local_tax_modifier = -0.1
    }
    ai_priority = {
        factor = 1
        modifier = {
            factor = 4
            trade_goods = slaves
        }
        modifier = {
            factor = 3
            unrest = 5
        }
        modifier = {
            factor = 1.5
            devastation = 50
        }
    }
}

militant_jadd_order = {
    icon = GFX_holy_order_militant_jadd
    trigger = {
        religion = the_jadd
    }
    cost = 50
    cost_type = mil_power
    per_province_effect = {
        add_base_manpower = 1
    }
    per_province_abandon_effect = {
        add_base_manpower = -1
    }
    modifier = {
		land_forcelimit = 0.5
		local_manpower = 1
		trade_goods_size = -1
    }
    ai_priority = {
        factor = 4
		modifier = {
			factor = 0.5
			development = 9
		}
		modifier = {
			factor = 0
			development = 12
		}
    }
}
