#400 - Muscat

owner = F07
controller = F07
add_core = F07
culture = desha
religion = mother_akan

hre = no

base_tax = 2
base_production = 2
base_manpower = 3

trade_goods = grain
center_of_trade = 1

capital = ""

is_city = yes








