# No previous file for Hejian
owner = Z22
controller = Z22
add_core = Z22
culture = blue_reachman
religion = regent_court

hre = no

base_tax = 3
base_production = 3
base_manpower = 3

trade_goods = livestock

capital = ""

is_city = yes








