# No previous file for Urviksten
owner = Z15
controller = Z15
add_core = Z15
culture = olavish
religion = skaldhyrric_faith

hre = no

base_tax = 2
base_production = 2
base_manpower = 2

trade_goods = iron

capital = ""

is_city = yes






