country_decisions = {
	start_dig_deeper = {
		major = yes
		potential = {
			capital_scope = {
				OR = {
					has_terrain = dwarven_hold
					has_terrain = dwarven_hold_surface
				}
			}
		}
		
		provinces_to_highlight = {
			is_capital = yes
			owned_by = ROOT
		}
		
		allow = {
			custom_trigger_tooltip = {
				tooltip = building_diggy_tooltip
				NOT = { has_country_flag = building_diggy }
			}
			OR = {
				has_country_modifier = dwarven_administration
				AND = {
					capital_scope = { has_subterranean_race = yes }
					adm_tech = 10
				}
				AND = {
					capital_scope = { has_integrated_dwarven_pop_trigger = yes }
					adm_tech = 7
				}
			}
			capital_scope = { can_upgrade_hold_capital = yes }
		}
		effect = {
			hidden_effect = { capital_scope = { setup_digging_deeper_capital = yes } }
			capital_scope = { start_digging_deeper = yes }
			hidden_effect = { set_country_flag = is_digging }
		}
		ai_will_do = {
			factor = 400
		}
	}
	
	start_hold_restoration = {
		major = yes
		potential = {
			any_owned_province = {
				OR = {
					has_province_modifier = ruined_hold
					has_province_modifier = partially_ruined_hold
					has_province_modifier = damaged_hold
				}
				NOT = { has_province_modifier = hold_being_restored }
				is_city = yes
			}
			NOT = { has_country_flag = open_repair_hold_menu }
		}
		
		provinces_to_highlight = {
			OR = {
				has_province_modifier = ruined_hold
				has_province_modifier = partially_ruined_hold
				has_province_modifier = damaged_hold
			}
			owned_by = ROOT
		}
		
		allow = {
			NOT = { num_of_rebel_armies = 1 }
			is_at_war = no
			if = {
				limit = { ai = no }
				mil_power = 50
				adm_power = 50
				dip_power = 50
				treasury = 100
			}
		}
		
		effect = {
			if = {
				limit = { ai = yes }
				add_adm_power = -75
				add_mil_power = -75
				add_dip_power = -75
				random_owned_province = {
					limit = {
						OR = { has_province_modifier = ruined_hold has_province_modifier = partially_ruined_hold has_province_modifier = damaged_hold }
						NOT = { has_province_modifier = hold_being_restored }
						is_city = yes
					}
					add_province_modifier = {
						name = hold_being_restored
						duration = -1
					}
					hidden_effect = { set_province_flag = being_restored }
				}
			}
			else = {
				country_event = { id = diggy.47 }
				hidden_effect = { set_country_flag = open_repair_hold_menu }
			}
		}
		ai_will_do = {
			factor = 400
			
		}
	}
	
	clear_infested_hold = {
		major = yes
		potential = {
			any_owned_province = {
				has_province_modifier = infested_hold
				is_city = yes
			}
			NOT = { has_country_flag = open_infested_hold_menu }
		}
		
		provinces_to_highlight = {
			has_province_modifier = infested_hold
			owned_by = ROOT
		}
		
		allow = {
			NOT = {
				has_spawned_rebels = cave_goblin_rebel
				has_spawned_rebels = cave_orc_rebel
				is_at_war = yes
			}
		}
		
		effect = {
			if = {
				limit = { ai = yes }
				random_owned_province  = {
					limit = { has_province_modifier = infested_hold is_city = yes }
					trigger_switch = {
						on_trigger = development
						
						35 = { spawn_rebels = { type = cave_orc_rebel culture = black_orc size = 3 } }
						20 = { spawn_rebels = { type = cave_orc_rebel culture = black_orc size = 2 } }
						3 = { spawn_rebels = { type = cave_orc_rebel culture = black_orc size = 1 } }
					}
					remove_province_modifier = infested_hold
					add_permanent_province_modifier = {
						name = ruined_hold
						duration = -1
					}
				}
			}
			else = {
				country_event = { id = diggy.48 }
				hidden_effect = { set_country_flag = open_infested_hold_menu }
			}
		}
		ai_will_do = {
			factor = 400
			
			modifier = {
				factor = 0
				OR = {
					NOT = { army_size = 12 }
					is_at_war = yes
				}
			}
			
			modifier = {
				factor = 0
				
				any_owned_province = {
					has_province_modifier = infested_hold
					development = 20
				}
				NOT = { army_size = 20 }
			}
		}
	}
	
	build_magma_forge = {
		major = yes
		potential = {
			capital_scope = {
				has_province_modifier = hold_foundry
			}
			NOT = { 
				has_country_flag = building_diggy
				has_country_flag = building_magma_forge
			}
		}
		
		provinces_to_highlight = {
			is_capital = yes
			owned_by = ROOT
		}
		
		allow = {
			capital_scope = {
				has_province_modifier = hold_foundry
				development = 90
			}
			adm_power = 100
			dip_power = 100
			treasury = 3000
			custom_trigger_tooltip = {
				tooltip = dont_dig_tooltip
				NOT = { has_country_flag = is_digging }
			}
		}
		
		effect = {
			add_treasury = -3000
			add_adm_power = -100
			add_dip_power = -100
			hidden_effect = {
				set_country_flag = building_diggy
				set_country_flag = building_magma_forge
				country_event = { id = diggy_project.1 }
			}
			capital_scope = {
				add_province_modifier = {
					name = developing_advanced_infrastructure
					duration = -1
				}
			}
		}
		
		ai_will_do = {
			factor = 400
		}
	}
	
	build_artificier_hall = {
		major = yes
		potential = {
			capital_scope = {
				has_province_modifier = hold_city
			}
			NOT = { 
				has_country_flag = building_diggy
				has_country_flag = building_artificier_hall
			}
		}
		
		provinces_to_highlight = {
			is_capital = yes
			owned_by = ROOT
		}
		
		allow = {
			capital_scope = {
				has_province_modifier = hold_city
				development = 90
			}
			adm_power = 100
			dip_power = 100
			treasury = 3000
			custom_trigger_tooltip = {
				tooltip = dont_dig_tooltip
				NOT = { has_country_flag = is_digging }
			}
		}
		
		effect = {
			add_treasury = -3000
			add_adm_power = -100
			add_dip_power = -100
			hidden_effect = {
				set_country_flag = building_diggy
				set_country_flag = building_artificier_hall
				country_event = { id = diggy_project.3 }
			}
			capital_scope = {
				add_province_modifier = {
					name = developing_advanced_infrastructure
					duration = -1
				}
			}
		}
		
		ai_will_do = {
			factor = 400
		}
	}
	
	build_engineer_manufactory = {
		major = yes
		potential = {
			capital_scope = {
				has_province_modifier = hold_artisan
			}
			NOT = { 
				has_country_flag = building_diggy
				has_country_flag = building_engineer_manufactory
			}
		}
		
		provinces_to_highlight = {
			is_capital = yes
			owned_by = ROOT
		}
		
		allow = {
			capital_scope = {
				has_province_modifier = hold_artisan
				development = 90
			}
			adm_power = 100
			dip_power = 100
			treasury = 3000
			custom_trigger_tooltip = {
				tooltip = dont_dig_tooltip
				NOT = { has_country_flag = is_digging }
			}
		}
		
		effect = {
			add_treasury = -3000
			add_adm_power = -100
			add_dip_power = -100
			hidden_effect = {
				set_country_flag = building_diggy
				set_country_flag = building_engineer_manufactory
				country_event = { id = diggy_project.5 }
			}
			capital_scope = {
				add_province_modifier = {
					name = developing_advanced_infrastructure
					duration = -1
				}
			}
		}
		
		ai_will_do = {
			factor = 400
		}
	}
	
	build_high_gardens = {
		major = yes
		potential = {
			capital_scope = {
				has_province_modifier = hold_farm
			}
			NOT = { 
				has_country_flag = building_diggy
				has_country_flag = building_high_gardens
			}
		}
		
		provinces_to_highlight = {
			is_capital = yes
			owned_by = ROOT
		}
		
		allow = {
			capital_scope = {
				has_province_modifier = hold_farm
				development = 90
			}
			adm_power = 100
			dip_power = 100
			treasury = 3000
			custom_trigger_tooltip = {
				tooltip = dont_dig_tooltip
				NOT = { has_country_flag = is_digging }
			}
		}
		
		effect = {
			add_treasury = -3000
			add_adm_power = -100
			add_dip_power = -100
			hidden_effect = {
				set_country_flag = building_diggy
				set_country_flag = building_high_gardens
				country_event = { id = diggy_project.7 }
			}
			capital_scope = {
				add_province_modifier = {
					name = developing_advanced_infrastructure
					duration = -1
				}
			}
		}
		
		ai_will_do = {
			factor = 400
		}
	}
	
	build_military_academy = {
		major = yes
		potential = {
			capital_scope = {
				has_province_modifier = hold_military
			}
			NOT = { 
				has_country_flag = building_diggy
				has_country_flag = building_military_academy
			}
		}
		
		provinces_to_highlight = {
			is_capital = yes
			owned_by = ROOT
		}
		
		allow = {
			capital_scope = {
				has_province_modifier = hold_military
				development = 90
			}
			adm_power = 100
			dip_power = 100
			treasury = 3000
			custom_trigger_tooltip = {
				tooltip = dont_dig_tooltip
				NOT = { has_country_flag = is_digging }
			}
		}
		
		effect = {
			add_treasury = -3000
			add_adm_power = -100
			add_dip_power = -100
			hidden_effect = {
				set_country_flag = building_diggy
				set_country_flag = building_military_academy
				country_event = { id = diggy_project.9 }
			}
			capital_scope = {
				add_province_modifier = {
					name = developing_advanced_infrastructure
					duration = -1
				}
			}
		}
		
		ai_will_do = {
			factor = 400
		}
	}
	
	explore_special_cavern = {
		major = yes
		potential = {
			any_owned_province = {
				has_province_modifier = special_cave
				NOT = { has_province_modifier = exploring_cave }
			}
		}
		
		provinces_to_highlight = {
			has_province_modifier = special_cave
			NOT = { has_province_modifier = exploring_cave }
			owned_by = ROOT
		}
		
		allow = {
			any_owned_province = {
				has_province_modifier = special_cave
				NOT = { has_province_modifier = exploring_cave }
				is_city = yes
			}
			dip_power = 20
			treasury = 50
		}
		
		effect = {
			if = {
				limit = { NOT = { total_development = 100 } }
				add_treasury = -50
			}
			else_if = {
				limit = { NOT = { total_development = 300 } }
				add_treasury = -100
			}
			else_if = {
				limit = { NOT = { total_development = 600 } }
				add_treasury = -150
			}
			else_if = {
				limit = { NOT = { total_development = 1000 } }
				add_treasury = -200
			}
			else = {
				add_treasury = -300
			}
			add_dip_power = -20
			random_owned_province = {
				limit = {
					has_province_modifier = special_cave
					NOT = { has_province_modifier = exploring_cave }
					is_city = yes
				}
				add_province_modifier = {
					name = exploring_cave
					duration = -1
				}
			}
			hidden_effect = { 
				if = {
					limit = { NOT = { has_country_flag = cavern_ini } }
					set_variable = { exploringCave = 1 }
					set_country_flag = cavern_ini
				}
				else = {
					change_variable = { exploringCave = 1 }
				}
			}
		}
		
		ai_will_do = {
			factor = 400
		}
	}
	
	rebuild_road = {
		major = yes
		potential = {
			any_owned_province = {
				has_province_modifier = dwarovar_rail
				NOT = { has_construction = building }
			}
			adm_tech = 12
		}
		
		provinces_to_highlight = {
			has_province_modifier = dwarovar_rail
			NOT = { has_construction = building }
			any_neighbor_province = {
				OR = {
					has_province_modifier = restored_rail
					has_province_modifier = advanced_rail
					AND = {
						OR = {
							has_terrain = dwarven_hold
							has_terrain = dwarven_hold_surface
						}
						NOT = { has_province_modifier = ruined_hold }
						NOT = { has_province_modifier = infested_hold }
					}
				}
				owned_by = ROOT
			}
			owned_by = ROOT
		}
		
		allow = {
			adm_tech = 16
			any_owned_province = {
				has_province_modifier = dwarovar_rail
				NOT = { has_construction = building }
				is_city = yes
				any_neighbor_province = {
					OR = {
						has_province_modifier = restored_rail
						has_province_modifier = advanced_rail
						AND = {
							OR = {
								has_terrain = dwarven_hold
								has_terrain = dwarven_hold_surface
							}
							NOT = { has_province_modifier = ruined_hold }
							NOT = { has_province_modifier = infested_hold }
						}
					}
					owned_by = ROOT
				}
			}
			treasury = 15
		}
		
		effect = {
			random_owned_province = {
				limit = {
					has_province_modifier = dwarovar_rail
					NOT = { has_construction = building }
					is_city = yes
					any_neighbor_province = {
						OR = {
							has_province_modifier = restored_rail
							has_province_modifier = advanced_rail
							AND = {
								OR = {
									has_terrain = dwarven_hold
									has_terrain = dwarven_hold_surface
								}
								NOT = { has_province_modifier = ruined_hold }
								NOT = { has_province_modifier = infested_hold }
							}
						}
						owned_by = ROOT
					}
				}
				add_building_construction = {
					building = railway_work
					speed = 1
					cost = 1
				}
			}
		}
		
		ai_will_do = {
			factor = 400
		}
	}
	
	upgrade_road = {
		major = yes
		potential = {
			any_owned_province = {
				has_province_modifier = restored_rail
				NOT = { has_construction = building }
			}
			adm_tech = 18
		}
		
		provinces_to_highlight = {
			has_province_modifier = restored_rail
			NOT = { has_construction = building }
			any_neighbor_province = {
				OR = {
					has_province_modifier = advanced_rail
					AND = {
						OR = {
							has_terrain = dwarven_hold
							has_terrain = dwarven_hold_surface
						}
						NOT = { has_province_modifier = ruined_hold }
						NOT = { has_province_modifier = infested_hold }
					}
				}
				owned_by = ROOT
			}
			owned_by = ROOT
		}
		
		allow = {
			adm_tech = 21
			treasury = 30
			any_owned_province = {
				has_province_modifier = restored_rail
				NOT = { has_construction = building }
				is_city = yes
				any_neighbor_province = {
					OR = {
						has_province_modifier = advanced_rail
						AND = {
							OR = {
								has_terrain = dwarven_hold
								has_terrain = dwarven_hold_surface
							}
							NOT = { has_province_modifier = ruined_hold }
							NOT = { has_province_modifier = infested_hold }
						}
					}
					owned_by = ROOT
				}
			}
		}
		
		effect = {
			random_owned_province = {
				limit = {
					has_province_modifier = restored_rail
					NOT = { has_construction = building }
					is_city = yes
					any_neighbor_province = {
						OR = {
							has_province_modifier = advanced_rail
							AND = {
								OR = {
									has_terrain = dwarven_hold
									has_terrain = dwarven_hold_surface
								}
								NOT = { has_province_modifier = ruined_hold }
								NOT = { has_province_modifier = infested_hold }
							}
						}
						owned_by = ROOT
					}
				}
				add_building_construction = {
					building = railway_work
					speed = 1.3
					cost = 2
				}
			}
		}
		
		ai_will_do = {
			factor = 400
		}
	}
	
	destroy_old_gate = {
		major = yes
		potential = {
			has_disaster = goblin_tide
			any_owned_province = { has_province_modifier = old_gate }
		}
		
		provinces_to_highlight = {
			has_province_modifier = old_gate
			owned_by = ROOT
		}
		
		allow = {
			any_owned_province = {
				has_province_modifier = old_gate
				owned_by = ROOT
				controlled_by = ROOT
				num_of_units_in_province = {
					who = ROOT
					amount = 10
				}
			}
		}
		
		effect = {
			random_owned_province = {
				limit = {
					has_province_modifier = old_gate
					owned_by = ROOT
					controlled_by = ROOT
					num_of_units_in_province = {
						who = ROOT
						amount = 10
					}
				}
				remove_province_modifier = old_gate
				spawn_rebels = {
					type = goblin_tide_rebel
					culture = cave_goblin
					size = 3
				}
			}
		}
		
		ai_will_do = {
			factor = 400
		}
	}
	
	build_orc_barrack = {
		major = yes
		potential = {
			primary_culture = black_orc
			any_owned_province = {
				OR = {
					has_terrain = dwarven_hold
					has_terrain = dwarven_hold_surface
				}
				NOT = { has_province_modifier = orc_hold_barrack }
				NOT = { has_province_modifier = black_orc_building_1 }
				is_city = yes
				culture = black_orc
			}
		}
		
		provinces_to_highlight = {
			OR = {
				has_terrain = dwarven_hold
				has_terrain = dwarven_hold_surface
			}
			NOT = { has_province_modifier = orc_hold_barrack }
			NOT = { has_province_modifier = black_orc_building_1 }
			is_city = yes
			culture = black_orc
			
			owned_by = ROOT
		}
		
		allow = {
			any_owned_province = {
				OR = {
					has_terrain = dwarven_hold
					has_terrain = dwarven_hold_surface
				}
				NOT = { has_province_modifier = orc_hold_barrack }
				NOT = { has_province_modifier = black_orc_building_1 }
				NOT = { has_province_modifier = infested_hold }
				is_city = yes
				culture = black_orc
			}
			mil_power = 300
		}
		
		effect = {
			add_mil_power = -300
			random_owned_province = {
				limit = {
					OR = {
						has_terrain = dwarven_hold
						has_terrain = dwarven_hold_surface
					}
					NOT = { has_province_modifier = orc_hold_barrack }
					NOT = { has_province_modifier = black_orc_building_1 }
					is_city = yes
					culture = black_orc
				}
				add_province_modifier = {
					name = black_orc_building_1
					duration = -1
				}
				hidden_effect = { province_event = { id = diggy.112 days = 365 random = 100 } }
			}
		}
		
		ai_will_do = {
			factor = 400
		}
	}
	
	build_orc_raider = {
		major = yes
		potential = {
			primary_culture = black_orc
			any_owned_province = {
				OR = {
					has_terrain = dwarven_hold
					has_terrain = dwarven_hold_surface
				}
				NOT = { has_province_modifier = orc_hold_raider }
				NOT = { has_province_modifier = black_orc_building_2 }
				is_city = yes
				culture = black_orc
			}
		}
		
		provinces_to_highlight = {
			OR = {
				has_terrain = dwarven_hold
				has_terrain = dwarven_hold_surface
			}
			NOT = { has_province_modifier = orc_hold_raider }
			NOT = { has_province_modifier = black_orc_building_2 }
			is_city = yes
			culture = black_orc
			
			owned_by = ROOT
		}
		
		allow = {
			any_owned_province = {
				OR = {
					has_terrain = dwarven_hold
					has_terrain = dwarven_hold_surface
				}
				NOT = { has_province_modifier = orc_hold_raider }
				NOT = { has_province_modifier = black_orc_building_2 }
				NOT = { has_province_modifier = infested_hold }
				is_city = yes
				culture = black_orc
			}
			dip_power = 300
		}
		
		effect = {
			add_dip_power = -300
			random_owned_province = {
				limit = {
					OR = {
						has_terrain = dwarven_hold
						has_terrain = dwarven_hold_surface
					}
					NOT = { has_province_modifier = orc_hold_raider }
					NOT = { has_province_modifier = black_orc_building_2 }
					is_city = yes
					culture = black_orc
				}
				add_province_modifier = {
					name = black_orc_building_2
					duration = -1
				}
				hidden_effect = { province_event = { id = diggy.112 days = 365 random = 100 } }
			}
		}
		
		ai_will_do = {
			factor = 400
		}
	}
	
	build_orc_arena = {
		major = yes
		potential = {
			primary_culture = black_orc
			any_owned_province = {
				OR = {
					has_terrain = dwarven_hold
					has_terrain = dwarven_hold_surface
				}
				NOT = { has_province_modifier = orc_hold_arena }
				NOT = { has_province_modifier = black_orc_building_3 }
				is_city = yes
				culture = black_orc
			}
		}
		
		provinces_to_highlight = {
			OR = {
				has_terrain = dwarven_hold
				has_terrain = dwarven_hold_surface
			}
			NOT = { has_province_modifier = orc_hold_arena }
			NOT = { has_province_modifier = black_orc_building_3 }
			is_city = yes
			culture = black_orc
			
			owned_by = ROOT
		}
		
		allow = {
			any_owned_province = {
				OR = {
					has_terrain = dwarven_hold
					has_terrain = dwarven_hold_surface
				}
				NOT = { has_province_modifier = orc_hold_arena }
				NOT = { has_province_modifier = black_orc_building_3 }
				NOT = { has_province_modifier = infested_hold }
				is_city = yes
				culture = black_orc
			}
			adm_power = 300
		}
		
		effect = {
			add_adm_power = -300
			random_owned_province = {
				limit = {
					OR = {
						has_terrain = dwarven_hold
						has_terrain = dwarven_hold_surface
					}
					NOT = { has_province_modifier = orc_hold_arena }
					NOT = { has_province_modifier = black_orc_building_3 }
					is_city = yes
					culture = black_orc
				}
				add_province_modifier = {
					name = black_orc_building_3
					duration = -1
				}
				hidden_effect = { province_event = { id = diggy.112 days = 365 random = 100 } }
			}
		}
		
		ai_will_do = {
			factor = 400
		}
	}
	
	purge_warband = {
		major = yes
		potential = {
			ai = no
			NOT = { num_of_cities = 3 }
			culture_group = dwarven
			capital_scope = {
				continent = serpentspine
			}
			any_owned_province = {
				is_capital = no
				OR = {
					culture = black_orc
					culture = cave_goblin
				}
				is_city = yes
			}
		}
		
		provinces_to_highlight = {
			is_capital = no
			OR = {
				culture = black_orc
				culture = cave_goblin
			}
			is_city = yes
			
			owned_by = ROOT
		}
		
		allow = {
			any_owned_province = {
				is_capital = no
				OR = {
					culture = black_orc
					culture = cave_goblin
				}
				is_city = yes
			}
		}
		
		effect = {
			add_prestige = 15
			add_mil_power = 75
			add_dip_power = 50
			random_owned_province = {
				limit = {
					is_capital = no
					OR = {
						culture = black_orc
						culture = cave_goblin
					}
					is_city = yes
				}
				custom_tooltip = purge_warband_tooltip
				destroy_province = yes
			}
		}
		
		ai_will_do = {
			factor = 400
		}
	}
	
	restore_irrigation = {
		major = yes
		potential = {
			NOT = { has_global_flag = serpent_vale_irrigation }
			amldihr_area = {
				type = all
				owned_by = ROOT
			}
			NOT = { has_country_flag = repairing_irrigation }
			NOT = {
				AND = {
					has_global_flag = irrigation_east_done
					has_global_flag = irrigation_north_done
					has_global_flag = irrigation_south_done
					has_global_flag = irrigation_west_done
				}
			}
		}
		
		provinces_to_highlight = {
			has_province_modifier = flooded_province
			owned_by = ROOT
		}
		
		allow = {
			amldihr_area = {
				type = all
				is_city = yes
			}
			if = {
				limit = { ai = no }
				treasury = 1500
			}
			else = {
				treasury = 500
			}
			adm_tech = 13
			adm_power = 200
		}
		
		effect = {
			hidden_effect = { set_country_flag = repairing_irrigation }
			country_event = { id = diggy.43 }
			#custom_tooltip = restore_irrigation_tooltip
		}
		
		ai_will_do = {
			factor = 400
		}
	}
	
	the_great_dam = {
		major = yes
		potential = {
			has_country_modifier = dwarven_administration
			NOT = { has_global_flag = harpylen_dam_build }
			capital_scope = { continent = serpentspine }
			adm_tech = 14
			NOT = { has_country_flag = dam_menu }
			NOT = { has_country_flag = constructing_dam }
		}
		
		provinces_to_highlight = {
			province_id = 676
		}
		
		allow = {
			owns = 676
			adm_tech = 16
			adm_power = 100
			treasury = 12500
		}
		
		effect = {
			hidden_effect = { set_country_flag = dam_menu }
			country_event = { id = diggy_project.11 }
		}
		
		ai_will_do = {
			factor = 400
		}
	}
	
	centralize_hold_administration = {
		major = yes
		potential = {
			ai = no
			has_country_modifier = dwarven_administration
			adm_tech = 10
			NOT = { has_country_flag = hold_operation }
		}
		
		provinces_to_highlight = {
			OR = {
				has_terrain = dwarven_hold
				has_terrain = dwarven_hold_surface
			}
		}
		
		allow = {
			adm_tech = 12
			num_of_owned_provinces_with = {
				value = 5
				OR = {
					has_terrain = dwarven_hold
					has_terrain = dwarven_hold_surface
				}
			}
			treasury = 12500
		}
		
		effect = {
			hidden_effect = { set_country_flag = hold_operation }
			add_treasury = -12500
		}
		
		ai_will_do = {
			factor = 400
		}
	}
	
	hold_operation = {
		major = yes
		potential = {
			has_country_flag = hold_operation
			NOT = { has_country_flag = hold_operation_menu }
		}
		
		provinces_to_highlight = {
			OR = {
				has_terrain = dwarven_hold
				has_terrain = dwarven_hold_surface
			}
		}
		
		allow = {
			always = yes
		}
		
		effect = {
			country_event = { id = diggy.49 }
			hidden_effect = { set_country_flag = hold_operation_menu }
		}
		
		ai_will_do = {
			factor = 400
		}
	}
}
