#Country Name: Please see filename.

graphical_culture = westerngfx

color = { 232  118  121 }

revolutionary_colors = { 232  118  121 }

historical_idea_groups = {
	expansion_ideas
	exploration_ideas
	quantity_ideas
	diplomatic_ideas	
	offensive_ideas
	defensive_ideas
	economic_ideas	
	innovativeness_ideas
}

historical_units = {
	western_medieval_infantry
	chevauchee
	western_men_at_arms
	swiss_landsknechten
	dutch_maurician
	french_caracolle
	anglofrench_line
	french_dragoon
	french_bluecoat
	french_cuirassier
	french_impulse
	mixed_order_infantry
	open_order_cavalry
	napoleonic_square
	napoleonic_lancers
}

monarch_names = {


	#Generic Kheteratan Name List
	"Bayek #0" = 10
	"Semut #0" = 10
	"Nuhem #0" = 10
	"Siout #0" = 10
	"Murdas #0" = 10
	"Seker #0" = 10
	"Benat #0" = 10
	"Aahmes #0" = 10
	"Sefu #0" = 10
	"Amer #0" = 10
	"Tariush #0" = 10
	"Babar #0" = 10
	"Tumain #0" = 10
	"Shishak #0" = 10
	"Res #0" = 10
	"Chener #0" = 10
	"Akir #0" = 10
	"Akil #0" = 10
	"Sab #0" = 10
	"Saban #0" = 10
	"Khair #0" = 10
	"Kair #0" = 10
	"Kenmu #0" = 10
	"Aakh #0" = 10
	"Jabar #0" = 10
	"Nazem #0" = 10
	"Entef #0" = 10
	"Nail #0" = 10
	"Chufar #0" = 10
	"Raad #0" = 10
	"Hekeb #0" = 10
	"Bhenak #0" = 10
	"Bonep #0" = 10
	"Zalik #0" = 10
	
	"Jenda #0" = -1
	"Jendayi #0" = -1
	"Thema #0" = -1
	"Antarta #0" = -1
	"Bakrana #0" = -1
	"Sofh #0" = -1
	"Naunet #0" = -1
	"Amina #0" = -1
	"Madsa #0" = -1
	"Nadia #0" = -1
	"Anqa #0" = -1
	"Zalika #0" = -1
	"Samia #0" = -1
	"Esi #0" = -1
	"Esia #0" = -1
	"Nane #0" = -1
	"Aakha #0" = -1
	"Sabana #0" = -1
	"Saba #0" = -1
	"Chena #0" = -1
	"Resa #0" = -1
	"Tuma #0" = -1
	"Taure #0" = -1
	"Panya #0" = -1
	"Arna #0" = -1
	"Raziya #0" = -1
	"Toriya #0" = -1
	"Subira #0" = -1
	"Taia #0" = -1
	"Ahti #0" = -1
	"Keta #0" = -1
}

leader_names = {
	#Country Specific
	Catchosen "'the Wanderer'" "'the Scout'" "'the Swift'"
	
	#Province Neighbours
	"of Aakheta" "of Sorrowgates" "of Anarat" "of Nirat" "of Kheterat" "of Koroshesh" 
	
	#Country Neighbours
	"of Brasan" "of Kheterata" "of Elizna" "of Bulwar"
	
	#Geographic Neighbours
	"of the Salahad" "of the Sorrow" "of the Diven" "of Akan"
	
	#Noble Families

	
	#Titles
	"'the Brown'"
	"'the Tall'" "'the Younger'" "'the Clever'" "'the Vigilant'" "'the Stern'" "'the Mighty'" "'Halfblood'" "'the Mudblooded'" "'the Kind'" "'the Able'" "'the Good'" "'the Fat'"
}

ship_names = {
	Elikhet "The Wanderer" "The Provider" Mother Sorrow "Mother's Sorrow" River
}

army_names = {
	"New Wanderers Army" "Wanderer" "Army of $PROVINCE$"
}

fleet_names = {
	"New Wanderers Fleet" "Cat Squadron" "Paw Squadron" "Fur Squadron" 
}